{
	"buckets": [
		"classification", 
		"scicontrols", 
    "disseminationcontrols",
    "nonicmarkings"
	],
	"keys": {
		"classification": {
			"A": {
				"prv": "/_test/keys/classification/apples/privkey.pem"
			},
			"B": {
				"prv": "/_test/keys/classification/banannas/privkey.pem"
			},
			"C": {
				"prv": "/_test/keys/classification/cats/privkey.pem"
			},
			"D": {
				"prv": "/_test/keys/classification/dogs/privkey.pem"
			},
			"E": {
				"prv": "/_test/keys/classification/usa/privkey.pem"
			}
		},
		"scicontrols": {
			"A": {
				"prv": "/_test/keys/scicontrols/apples/privkey.pem"
			},
			"B": {
				"prv": "/_test/keys/scicontrols/banannas/privkey.pem"
			},
			"C": {
				"prv": "/_test/keys/scicontrols/cats/privkey.pem"
			},
			"D": {
				"prv": "/_test/keys/scicontrols/dogs/privkey.pem"
			},
			"E": {
				"prv": "/_test/keys/scicontrols/usa/privkey.pem"
			}
		},
		"disseminationcontrols": {
			"A": {
				"prv": "/_test/keys/disseminationcontrols/apples/privkey.pem"
			},
			"B": {
				"prv": "/_test/keys/disseminationcontrols/banannas/privkey.pem"
			},
			"C": {
				"prv": "/_test/keys/disseminationcontrols/cats/privkey.pem"
			},
			"D": {
				"prv": "/_test/keys/disseminationcontrols/dogs/privkey.pem"
			},
			"E": {
				"prv": "/_test/keys/disseminationcontrols/usa/privkey.pem"
			}
    },
		"nonicmarkings": {
			"A": {
				"prv": "/_test/keys/disseminationcontrols/apples/privkey.pem"
			},
			"B": {
				"prv": "/_test/keys/disseminationcontrols/banannas/privkey.pem"
			},
			"C": {
				"prv": "/_test/keys/disseminationcontrols/cats/privkey.pem"
			},
			"D": {
				"prv": "/_test/keys/disseminationcontrols/dogs/privkey.pem"
			},
			"E": {
				"prv": "/_test/keys/disseminationcontrols/usa/privkey.pem"
			}
		}
	}
}
