{
	"buckets": [
		"classification", 
		"scicontrols", 
		"disseminationcontrols"
	],
	"keys": {
		"classification": {
			"A": {
				"pub": "/_test/keys/classification/apples/pubkey.pem"
			},
			"B": {
				"pub": "/_test/keys/classification/banannas/pubkey.pem"
			},
			"C": {
				"pub": "/_test/keys/classification/cats/pubkey.pem"
			},
			"D": {
				"pub": "/_test/keys/classification/dogs/pubkey.pem"
			},
			"E": {
				"pub": "/_test/keys/classification/usa/pubkey.pem"
			}
		},
		"scicontrols": {
			"A": {
				"pub": "/_test/keys/scicontrols/apples/pubkey.pem"
			},
			"B": {
				"pub": "/_test/keys/scicontrols/banannas/pubkey.pem"
			},
			"C": {
				"pub": "/_test/keys/scicontrols/cats/pubkey.pem"
			},
			"D": {
				"pub": "/_test/keys/scicontrols/dogs/pubkey.pem"
			},
			"E": {
				"pub": "/_test/keys/scicontrols/usa/pubkey.pem"
      },
      "F": ["A", "C", "B"]
		},
		"disseminationcontrols": {
			"A": {
				"pub": "/_test/keys/disseminationcontrols/apples/pubkey.pem"
			},
			"B": {
				"pub": "/_test/keys/disseminationcontrols/banannas/pubkey.pem"
			},
			"C": {
				"pub": "/_test/keys/disseminationcontrols/cats/pubkey.pem"
			},
			"D": {
				"pub": "/_test/keys/disseminationcontrols/dogs/pubkey.pem"
			},
			"E": {
				"pub": "/_test/keys/disseminationcontrols/usa/pubkey.pem"
      },
      "F": ["B", "C", "A"]
		}
	}
}
